Danish Kings
…
Do your start and end of reign columns contain NAs? Choose the right
strategy to deal with them: na.omit(),
na.rm=TRUE, !is.na()

Create a new column called duration in the kings
dataset, utilizing the mutate() function from tidyverse.
Check with your group to brainstorm the options.

# YOUR CODE
#creating a duration column by subtracting start reign from end reign, then displaying the dataset to see the results.
Kings <- Kings %>%
  mutate(duration = Reg_slut - Reg_start)
Kings

## # A tibble: 52 × 8
##    Navn              Født   Død Reg_start Reg_slut Dynasti        ...7  duration
##    <chr>            <dbl> <dbl>     <dbl>    <dbl> <chr>          <lgl>    <dbl>
##  1 Gorm den Gamle      NA   958       936      958 Jellingdynast… NA          22
##  2 Harald Blåtand      NA   985       958      985 Jellingdynast… NA          27
##  3 Svend Tveskæg       NA  1014       986     1014 Jellingdynast… NA          28
##  4 Knud den Store     995  1035      1018     1035 Jellingdynast… NA          17
##  5 Hardeknud         1018  1042      1035     1042 Jellingdynast… NA           7
##  6 Magnus den Gode   1024  1047      1042     1047 Det norske hus NA           5
##  7 Svend Estridsen   1019  1076      1047     1076 Estridsen-slæ… NA          29
##  8 Harald Hen        1040  1080      1076     1080 Estridsen-slæ… NA           4
##  9 Knud den Hellige  1042  1086      1080     1086 Estridsen-slæ… NA           6
## 10 Oluf Hunger       1050  1095      1086     1095 Estridsen-slæ… NA           9
## # ℹ 42 more rows
…
